{
    "KPlugin": {
        "Authors": [
            {
                "Email": "mart@kde.org",
                "Name": "Marco Martin",
                "Name[ast]": "Marco Martin",
                "Name[bg]": "Marco Martin",
                "Name[ca@valencia]": "Marco Martin",
                "Name[ca]": "Marco Martin",
                "Name[cs]": "Marco Martin",
                "Name[de]": "Marco Martin",
                "Name[en_GB]": "Marco Martin",
                "Name[eo]": "Marco Martin",
                "Name[es]": "Marco Martin",
                "Name[eu]": "Marco Martin",
                "Name[fi]": "Marco Martin",
                "Name[fr]": "Marco Martin",
                "Name[gl]": "Marco Martin",
                "Name[ia]": "Marco Martin",
                "Name[it]": "Marco Martin",
                "Name[ka]": "Marco Martin",
                "Name[ko]": "Marco Martin",
                "Name[nl]": "Marco Martin",
                "Name[nn]": "Marco Martin",
                "Name[pl]": "Marco Martin",
                "Name[pt_BR]": "Marco Martin",
                "Name[sk]": "Marco Martin",
                "Name[sl]": "Marco Martin",
                "Name[tr]": "Marco Martin",
                "Name[uk]": "Marco Martin",
                "Name[x-test]": "xxMarco Martinxx",
                "Name[zh_CN]": "Marco Martin",
                "Name[zh_TW]": "Marco Martin"
            }
        ],
        "Category": "",
        "Description": "PlasmoidViewer Shell",
        "Description[bg]": "Обвивка на PlasmoidViewer",
        "Description[ca@valencia]": "Intèrpret d'ordres del visor de plasmoides",
        "Description[ca]": "Intèrpret d'ordres del visualitzador de plasmoides",
        "Description[de]": "PlasmoidViewer-Shell",
        "Description[en_GB]": "PlasmoidViewer Shell",
        "Description[eo]": "PlasmoidViewer-ŝelo",
        "Description[es]": "Entorno de vista de plasmoides",
        "Description[eu]": "PlasmoidViewer oskola",
        "Description[fi]": "PlasmoidViewer-kuori",
        "Description[fr]": "Interpréteur PlasmoidViewer",
        "Description[gl]": "Intérprete de PlasmoidViewer",
        "Description[ia]": "Shell de PlasmoidViewer",
        "Description[it]": "PlasmoidViewer Shell",
        "Description[ka]": "PlasmoidViewer -ის გარსი",
        "Description[ko]": "PlasmoidViewer 셸",
        "Description[nl]": "Shell van PlasmoidViewer",
        "Description[nn]": "PlasmoidViewer-skal",
        "Description[pl]": "Powłoka przeglądarki plazmoidów",
        "Description[pt_BR]": "Console do PlasmoidViewer",
        "Description[sk]": "Shell PlasmoidViewer",
        "Description[sl]": "Lupina PlasmoidViewer",
        "Description[tr]": "PlasmoidViewer Kabuğu",
        "Description[uk]": "Оболонка перегляду плазмоїдів",
        "Description[x-test]": "xxPlasmoidViewer Shellxx",
        "Description[zh_CN]": "Plasmoid 查看器外壳",
        "Description[zh_TW]": "Plasmoid 檢視器殼層",
        "Id": "org.kde.plasmoidviewershell",
        "License": "GPL-2.0+",
        "Name": "PlasmoidViewerShell",
        "Name[az]": "PlasmoidViewer üzlüyü",
        "Name[be]": "PlasmoidViewerShell",
        "Name[bg]": "PlasmoidViewerShell",
        "Name[ca@valencia]": "Intèrpret d'ordres del visor de plasmoides",
        "Name[ca]": "Intèrpret d'ordres del visualitzador de plasmoides",
        "Name[da]": "PlasmoidViewerShell",
        "Name[de]": "PlasmoidViewerShell",
        "Name[el]": "PlasmoidViewerShell",
        "Name[en_GB]": "PlasmoidViewerShell",
        "Name[eo]": "PlasmoidViewerShell",
        "Name[es]": "Entorno de vista de plasmoides",
        "Name[et]": "PlasmoidViewerShell",
        "Name[eu]": "PlasmoidViewerShell",
        "Name[fi]": "PlasmoidViewerShell",
        "Name[fr]": "Interpréteur PlasmoidViewer",
        "Name[gl]": "PlasmoidViewerShell",
        "Name[hu]": "PlasmoidViewerShell",
        "Name[ia]": "PlasmoidViewerShell",
        "Name[id]": "PlasmoidViewerShell",
        "Name[it]": "PlasmoidViewerShell",
        "Name[ka]": "PlasmoidViewerShell",
        "Name[ko]": "PlasmoidViewerShell",
        "Name[lt]": "PlasmoidViewerShell",
        "Name[nl]": "PlasmoidViewerShell",
        "Name[nn]": "PlasmoidViewerShell",
        "Name[pl]": "Powłoka przeglądarki plazmoidów",
        "Name[pt]": "Consola do PlasmoidViewer",
        "Name[pt_BR]": "Console do PlasmoidViewer",
        "Name[ru]": "Оболочка PlasmoidViewer",
        "Name[sk]": "PlasmoidViewerShell",
        "Name[sl]": "PlasmoidViewerShell",
        "Name[sr@ijekavian]": "Шкољка приказивача плазмоида",
        "Name[sr@ijekavianlatin]": "Školjka prikazivača plazmoida",
        "Name[sr@latin]": "Školjka prikazivača plazmoida",
        "Name[sr]": "Шкољка приказивача плазмоида",
        "Name[sv]": "Plasmoid-visningsskal",
        "Name[tr]": "PlasmoidViewerShell",
        "Name[uk]": "Оболонка перегляду плазмоїдів",
        "Name[x-test]": "xxPlasmoidViewerShellxx",
        "Name[zh_CN]": "Plasmoid 查看器外壳",
        "Name[zh_TW]": "PlasmoidViewerShell",
        "ServiceTypes": [
            "Plasma/Shell"
        ],
        "Version": "",
        "Website": ""
    },
    "Keywords": "",
    "X-KDE-ParentApp": "",
    "X-Plasma-MainScript": "layout.js"
}
